{
"name": "Draugo Default",
"targetFilename": "draugoDefault",
"description": "Default filter set, evolves with each league",
"groups": [{
  "strictness": ["info"],
  "description": [
    "Character specific items such as weapon bases"
  ],
  "filters": [{
    "comment": "Melee gear",
    "fontSize": 24,
    "rarity": "rare",
    "colourRef": "border:lime text:gold background:transparent",
    "class": ["thrusting1hsword"]
  },{
    "comment": "Melee gear",
    "fontSize": 24,
    "rarity": "rare",
    "colourRef": "border:bright_red text:gold background:transparent",
    "class": ["1hsword"]
  },{
    "comment": "Crafting bases current",
    "fontSize": 30,
    "colourRef": "border:yellow text:yellow background:white",
    "rarity": "normal",
    "filters": [{
      "baseType": ["Tiger Hook", "Midnight Blade", "Vaal Rapier", "Vaal Blade"]
    }]
  },{
    "comment": "Crafting bases",
    "fontSize": 30,
    "itemLevel": ">= 80",
    "colourRef": "border:yellow text:yellow background:white",
    "rarity": "normal",
    "filters": [{
      "baseType": ["Steel Ring", "Vanguard Belt", "Crystal Belt", "Vaal Axe", "Imperial Maul", "Coronal Maul", "Astral Plate", "Glorious Plate", "Titan Greaves", "Titan Gauntlets", "Spiked Gloves", "Eternal Burgonet"]
    }]
  }
  ]
  },
  {
  "strictness": ["starter", "early", "mid", "late","end", "end-strict"],
  "description": [
    "Always show following items",
    "This is meant for overriding any general or specific hide-commands",
    "Used when searching for a particular item or items"
  ],
  "filters": [{
    "block": "show",
    "filters": [{
      "class": ["gem"],
      "fontSize": 30,
      "filters": [{
        "comment": "Awakened Gems",
        "baseType": ["Awakened"],
        "colourRef": "text:black background:dark_blue"
      },{
        "comment": "Alternate quality Gems",
        "alternateQuality": true,
        "colourRef": "text:black background:light_blue"
      },{
        "comment": "Interesting Gems",
        "baseType": ["Empower Support", "Enhance Support", "Enlighten Support", "Portal", "Block Chance Reduction Support"],
        "colourRef": "border:cyan background:dark_cyan"
      }]
    },{
      "class": ["jewel"],
      "filters": [{
        "comment": "Cluster Jewels",
        "baseType": ["Cluster"],
        "fontSize": 30,
        "colourRef": "border:copper background:dark_blue_gray",
        "continue": true
      },{
        "baseType": ["Small Cluster"],
        "minimapIcon": "#REFi:cluster#Slarge"
      },{
        "baseType": ["Medium Cluster"],
        "minimapIcon": "#REFi:cluster#Smedium"
      },{
        "baseType": ["Large Cluster"],
        "minimapIcon": "#REFi:cluster#Ssmall"
      }]
    },{
      "comment": "Items needed for challenges",
      "enabled": "t:challenge_items",
      "colourRef": "border:mid_gray text:mid_gray background:white",
      "filters": [{
        "rarity": "normal",
        "enabled": "t:challenge_cartographer",
        "baseType": ["Stone Hammer", "Rock Breaker", "Gavel"]
      },{
        "class": ["gem"],
        "quality": ">= 5",
        "enabled": "t:challenge_gem"
      },{
        "rarity": "rare",
        "itemLevel": ">= 75",
        "enabled": "t:challenge_regal_large",
        "width": ">= 2",
        "height": ">= 2"
      },{
        "rarity": "rare",
        "itemLevel": ">= 75",
        "enabled": "t:challenge_regal_small",
        "height": "1"
      },{
        "class": ["card"],
        "baseType": ["Turn the Other Cheek"],
        "enabled": "t:challenge_jewel"
      }]
    }]
  }]
  },
  {
    "strictness": ["starter", "early", "mid", "late","end", "end-strict"],
    "description": [
      "Always hide unnecessary items",
      "These can be enabled as leveling progresses"
    ],
    "groups": [{
      "description": ["CARDS"],
      "filters": [{
        "block": "hide",
        "class": ["card"],
        "baseType": ["Thunderous Skies", "The Flora's Gift", "The Carrion Crow", "Struck by Lightning", "Destined to Crumble", "The Doppelganger", "The Surgeon", "The Opulent", "The Lover", "Dark Temptation", "The Incantation", "The King's Blade", "Her Mask", "Lantador's Lost Love", "Prosperity", "The Metalsmith's Gift", "The Endurance", "Boon of Justice", "Assassin's Favour", "Cartographer's Delight", "The Rabid Rhoa", "The Lunaris Priestess", "Mitts", "Earth Drinker", "Turn the Other Cheek"]
      }]
    },{
      "description": ["CURRENCY"],
      "strictness": ["early", "mid", "late","end", "end-strict"],
      "filters": [{
        "block": "hide",
        "class": ["currency"],
        "filters": [{
          "strictness": ["early", "mid", "late","end", "end-strict"],
          "comment": "Base shards",
          "baseType": ["Transmutation Shard", "Alteration Shard"]
        },{
          "comment": "Scrolls",
          "strictness": ["mid","late", "end", "end-strict"],
          "baseType": ["Scroll of Wisdom"]
        },{
          "comment": "Portal scroll",
          "strictness": ["late", "end"],
          "baseType": ["Portal Scroll"]
        },{
          "comment": "Quality",
          "strictness": ["end","end-strict"],
          "baseType": ["Blacksmith's Whetstone", "Armourer's Scrap", "Engineer's Shard"]
        },{
          "comment": "Magic item currency",
          "strictness": ["end-strict"],
          "baseType": ["Orb of Transmutation", "Orb of Augmentation", "Orb of Alteration"]
        }]
      }]
    },{
      "description": ["FLASKS"],
      "filters": [{
        "strictness": ["late","end", "end-strict"],
        "class": ["flask"],
        "block": "hide",
        "rarity": "< unique",
        "filters": [{
          "comment": "All non unique flasks",
          "enabled": "t:non_unique_flasks"
        },{
          "comment": "Defence flasks",
          "baseType": ["Jade", "Basalt", "Quartz", "Granite", "Stibnite", "Quicksilver"]
        },{
          "comment": "Offencive flasks",
          "baseType": ["Sulphur", "Silver", "Diamond"]
        },{
          "comment": "Resistance flasks",
          "baseType": ["Bismuth", "Ruby", "Aquamarine", "Amethyst", "Topaz", "Sapphire"]
        },{
          "strictness": ["starter","early", "mid", "late","end", "end-strict"],
          "comment": "Life and mana flasks TODO: Filter based on area level",
          "filters": [{
            "baseType": ["Small"],
            "areaLevel": ">= 2"
          },{
            "baseType": ["Medium"],
            "areaLevel": ">= 6"
          },{
            "baseType": ["Large"],
            "areaLevel": ">= 12"
          },{
            "baseType": ["Greater"],
            "areaLevel": ">= 18"
          },{
            "baseType": ["Grand"],
            "areaLevel": ">= 24"
          },{
            "baseType": ["Giant"],
            "areaLevel": ">= 30"
          },{
            "baseType": ["Colossal"],
            "areaLevel": ">= 36"
          },{
            "baseType": ["Sacred"],
            "areaLevel": ">= 42"
          },{
            "baseType": ["Hallowed"],
            "areaLevel": ">= 50"
          },{
            "baseType": ["Sanctified"],
            "areaLevel": ">= 60"
          },{
            "strictness": ["late","end", "end-strict"],
            "baseType": ["Life", "Mana", "Hybrid"]
          }]
        }]
      }]
    },{
      "strictness": ["late", "end", "end-strict"],
      "description": ["GEM"],
      "enabled": "t:low_quality_gems",
      "filters": [{
        "block": "hide",
        "class": ["gem"],
        "comment": "Hide gems with low quality or level",
        "gemLevel": "< 19",
        "quality": "< 18"
      }]
    },{
      "strictness": ["mid", "late", "end", "end-strict"],
      "description": ["JEWEL"],
      "enabled": "t:non_rare_jewels",
      "filters": [{
        "block": "hide",
        "class": ["jewel"],
        "rarity": "< rare"
      }]
    }]
  },
  {
    "strictness": ["starter", "early", "mid", "late","end", "end-strict"],
    "description": [
      "Special items",
      "These are things like league items"
    ],
    "filters": [{
      "block": "show",
      "fontSize": 30,
      "minimapIcon": "i:special",
      "background": "background:dark_purple",
      "filters": [{
        "comment": "Incursion items",
        "class": ["incursion"],
        "playEffect": "red",
        "minimapIcon": "#Cbrown",
        "colourRef": "border:yellow text:yellow"
      },{
        "comment": "Veiled items",
        "hasMod": "Veil",
        "minimapIcon": "#Cwhite",
        "colourRef": "background:mid_gray text:silver border:gray_green"
      },{
        "comment": "Incubators",
        "class": ["incubator"],
        "colourRef": "border:white text:pure_red",
        "minimapIcon": "#Cgreen"
      },{
        "baseType": ["Scarab"],
        "comment": "Scarab",
        "class": ["fragment"],
        "colourRef": "text:pink border:dark_yellow background:dark_purple",
        "minimapIcon": "#Cwhite"
      },{
        "minimapIcon": "#Cbrown",
        "background": "background:black",
        "filters": [{
          "comment": "Treasure Key",
          "baseType": ["Treasure Key"],
          "colourRef": "text:copper border:copper"
        },{
          "comment": "Golden Key",
          "baseType": ["Golden Key"],
          "colourRef": "text:gold border:gold"
        },{
          "comment": "Silver Key",
          "baseType": ["Silver Key"],
          "colourRef": "text:silver border:silver"
        }]
      },{
        "comment": "Splinters",
        "baseType": ["Splinter"],
        "class": ["currency"],
        "colourRef": "text:bright_orange border:dark_yellow",
        "minimapIcon": "#Cred"
      },{
        "comment": "Essences",
        "baseType": ["Essence", "Corruption"],
        "class": ["currency"],
        "colourRef": "text:bright_cyan border:dark_yellow",
        "minimapIcon": "#Cred"
      },{
        "class": ["currency"],
        "colourRef": "text:bright_orange border:bright_orange",
        "minimapIcon": "#Cyellow",
        "filters": [{
          "comment": "Resonators # TODO: Add larger icons for rare resonators",
          "baseType": ["Resonator"],
          "background": "background:mid_gray"
        },{
          "comment": "Fossils # TODO: Add larger icons for rare fossils",
          "baseType": ["Fossil"],
          "background": "background:orange"
        }]
      },{
        "comment": "Blight",
        "baseType": ["Oil"],
        "class": ["currency"],
        "minimapIcon": "#Cblue",
        "border": "border:dark_yellow",
        "text": "clear"
      },{
        "comment": "Metamorph",
        "baseType": ["Catalyst"],
        "class": ["currency"],
        "minimapIcon": "#Cblue",
        "border": "border:dark_yellow",
        "text": "clear"
      },{
        "comment": "HEIST",
        "minimapIcon": "i:heist",
        "background": "clear",
        "border": "clear",
        "text": "clear",
        "filters": [{
          "comment": "Marker",
          "baseType": ["Rogue's Marker"],
          "colourRef": "border:gold background:dried_crimson text:faded_crimson",
          "minimapIcon": "#Cpink"
        },{
          "comment": "Trinket TODO: Figure colours with example",
          "class": ["trinket"],
          "border": "border:white",
          "background": "background:transparent",
          "text": "text:lime",
          "minimapIcon": "#Cgreen"
        },{
          "comment": "Contract",
          "class": ["contract"],
          "colourRef": "border:light_leather background:dried_crimson text:paper",
          "minimapIcon": "#Cgray"
        },{
          "comment": "Crew Contract",
          "class": ["quest"],
          "baseType": ["Contract:"],
          "colourRef": "border:lime background:dried_crimson text:paper",
          "minimapIcon": "#Cgreen"
        },{
          "comment": "Blueprint",
          "class": ["blueprint"],
          "colourRef": "border:dried_crimson background:paper text:charcoal",
          "minimapIcon": "#Cgray"
        },{
          "comment": "Heist",
          "filters": [{
            "comment": "Heist grouping",
            "class": ["heist"],
            "border": "border:white",
            "background": "background:transparent",
            "text": "text:brown",
            "minimapIcon": "#Cblue",
            "continue": true
          },{
            "comment": "Heist Target",
            "class": ["target"],
            "colourRef": "border:white background:transparent text:silver",
            "minimapIcon": "#Cgray"
          },{
            "comment": "Heist Gear",
            "class": ["gear", "tool", "brooch", "cloak"],
            "colourRef": "border:gold background:dried_crimson text:silver",
            "minimapIcon": "#Cwhite"
          }]
        }]
      }]
    }]
  },
  {
    "strictness": ["starter", "early", "mid", "late","end", "end-strict"],
    "description": ["Influence items"],
    "forceMultiline": true,
    "filters": [{
      "block": "show",
      "filters": [{
        "filters": [{
          "comment": "Influence",
          "hasInfluence": ["shaper", "elder", "hunter", "warlord", "crusader", "redeemer"],
          "fontSize": "24",
          "colourRef": "background:dark_purple border:purple text:white",
          "continue": true
        },{
          "comment": "Shaper",
          "hasInfluence": ["shaper"],
          "minimapIcon": "#Sdisable",
          "text": "text:pure_red"
        },{
          "comment": "Elder",
          "hasInfluence": ["elder"],
          "minimapIcon": "#Sdisable",
          "text": "text:bright_purple"
        },{
          "comment": "Hunter",
          "hasInfluence": ["hunter"],
          "text": "text:green"
        },{
          "comment": "Warlord",
          "hasInfluence": ["warlord"],
          "text": "text:gold"
        },{
          "comment": "Crusader",
          "hasInfluence": ["crusader"]
        },{
          "comment": "Redeemer",
          "hasInfluence": ["redeemer"],
          "text": "text:bright_cyan"
        }]
      }]
    }]
  },
  {
    "strictness": ["starter", "early", "mid", "late","end", "end-strict"],
    "description": [
      "Maps",
      "Maps and map type fragments"
    ],
    "filters": [{
      "block": "show",
      "fontSize": 30,
      "filters": [{
        "class": ["fragment"],
        "colourRef": "background:dark_purple border:dark_yellow",
        "minimapIcon": "i:map_fragments",
        "filters": [{
          "comment": "Divine Vessels",
          "baseType": ["Divine Vessel"],
          "text": "text:bright_blue",
          "minimapIcon": "#Cblue"
        },{
          "comment": "Key Fragments",
          "baseType": ["Key"],
          "text": "text:white",
          "minimapIcon": "#Cred"
        },{
          "comment": "Mortal Fragments",
          "baseType": ["Mortal"],
          "text": "text:white",
          "minimapIcon": "#Cyellow"
        },{
          "comment": "Sacrifice Fragments",
          "baseType": ["Sacrifice"],
          "text": "text:white",
          "minimapIcon": "#Cwhite"
        },{
          "class": ["clear"],
          "comment": "Watchstones",
          "baseType": ["Watchstone"],
          "text": "text:black",
          "minimapIcon": "#Cgreen"
        },{
          "comment": "Uncaught fragments",
          "text": "text:mid_gray",
          "minimapIcon": "#Cwhite"
        }]
      },{
        "class": ["map"],
        "colourRef": "background:red_tinted_gray border:mid_gray",
        "minimapIcon": "i:maps",
        "filters": [{
          "comment": "Unique maps",
          "rarity": "unique",
          "text": "text:brown",
          "minimapIcon": "#Cbrown"
        },{
          "comment": "Tiers: 1-5",
          "mapTier": "< 6",
          "text": "text:black",
          "minimapIcon": "#Cwhite"
        },{
          "comment": "Tiers: 6-10",
          "mapTier": "< 11",
          "text": "text:gold",
          "minimapIcon": "#Cyellow"
        },{
          "comment": "Tiers: 11-13",
          "mapTier": "< 14",
          "text": "text:bright_red",
          "minimapIcon": "#Cred"
        },{
          "comment": "Tiers: 14-15",
          "mapTier": "lt 16",
          "text": "text:dark_blue",
          "minimapIcon": "#Cblue"
        },{
          "comment": "Tiers: 16-17",
          "text": "text:dark_green",
          "minimapIcon": "#Cgreen"
        }]
      }]
    }]
  },
  {
    "strictness": ["starter", "early", "mid", "late","end", "end-strict"],
    "description": ["Cards"],
    "forceMultiline": true,
    "filters": [{
      "block": "show",
      "filters": [{
        "comment": "Crafting bases",
        "fontSize": 30,
        "class": ["card"],
        "filters": [{
          "baseType": ["Humility"],
          "colourRef": "border:yellow text:yellow background:white",
          "minimapIcon": "#Cwhite#Slarge#Iraindrop",
          "playEffect": "orange"
        },{
          "colourRef": "border:dark_gray background:black text:mid_gray",
          "minimapIcon": "#Ssmall#Istar#Cblue",
          "filters": [{}, {
            "class": ["clear"],
            "baseType": ["Stacked Deck"]
          }]
        }]
      }]
    }]
  },
  {
    "strictness": ["starter", "early", "mid", "late","end", "end-strict"],
    "description": [
      "Prophecies",
      "Needs to be before currency",
      "TODO: Mark interesting or valuable prophecies"
    ],
    "filters": [{
      "block": "show",
      "class": ["currency"],
      "baseType": ["Prophecy"],
      "fontSize": 30,
      "colourRef": "text:purple border:gold background:dark_purple",
      "minimapIcon": "#Ssmall#Istar#Cgreen"
    }]
  },
  {
    "strictness": ["starter", "early", "mid", "late","end", "end-strict"],
    "description": [
      "Other interesting stuff",
      "Needs to be before currency"
    ],
    "filters": [{
      "block": "show",
      "minimapIcon": "i:other",
      "colourRef": "text:light_cyan border:light_cyan background:dark_gray",
      "fontSize": 30,
      "filters": [{
        "comment": "Replica Uniques",
        "replica": true,
        "colourRef": "text:light_brown border:transparent background:light_brown",
        "minimapIcon": "#Corange"
      },{
        "comment": "Quest",
        "class": ["quest"],
        "colourRef": "border:white background:transparent text:gold",
        "minimapIcon": "#Cyellow"
      },{
        "comment": "Uniques",
        "rarity": "unique",
        "colourRef": "text:brown border:transparent background:brown",
        "minimapIcon": "#Cbrown"
      },{
        "class": ["gem"],
        "filters": [{
          "comment": "High quality Gems",
          "quality": ">= 18",
          "minimapIcon": "#Cyellow"
        },{
          "comment": "High level Gems",
          "gemLevel": ">= 19",
          "minimapIcon": "#Cwhite"
        }]
      }]
    }]
  },
  {
    "strictness": ["starter", "early", "mid", "late","end", "end-strict"],
    "forceMultiline": true,
    "description": [
      "Currency and currency Recipes"
    ],
    "filters": [{
      "block": "show",
      "class": ["currency"],
      "fontSize": 30,
      "filters": [{
        "minimapIcon": "i:currency",
        "text": "text:gold",
        "border": "#REFborder:gold#A180",
        "filters": [{
          "comment": "1++",
          "baseType": ["Exalted Orb", "Crusader's Exalted Orb", "Redeemer's Exalted Orb", "Hunter's Exalted Orb", "Warlord's Exalted Orb", "Awakener's Orb", "Mirror of Kalandra", "Mirror Shard"],
          "background": "background:dark_green",
          "minimapIcon": "#Cgreen",
          "playEffect": "green"
        },{
          "background": "background:dark_blue",
          "minimapIcon": "#Cblue",
          "playEffect": "blue",
          "filters": [{
            "comment": "1+",
            "baseType": ["Exalted Shard", "Orb of Unmaking", "Divine Orb", "Orb of Annulment", "Harbinger's Orb", "Ancient Orb", "Blessing of Chayula", "Delirium", "Veiled Chaos Orb"]
          },{
            "comment": "6L",
            "class": ["clear"],
            "linkedSockets": 6
          }]
        },{
          "comment": "1",
          "baseType": ["Chaos Orb", "Awakened Sextant", "Blessing of Uul-Netol", "Blessing of Esh", "Blessing of Tul", "Blessing of Xoph", "Annulment Shard", "Harbinger's Shard", "Ancient Shard"],
          "background": "background:red",
          "minimapIcon": "#Cred"
        },{
          "comment": "0.8",
          "baseType": ["Vaal Orb", "Gemcutter's Prism", "Cartographer's Chisel", "Prime Sextant", "Chaos Shard"],
          "background": "background:gold",
          "minimapIcon": "#Cbrown"
        },{
          "comment": "0.4",
          "baseType": ["Orb of Scouring", "Engineer's Orb", "Orb of Fusing", "Blessed Orb", "Orb of Regret", "Simple Sextant", "Orb of Horizons"],
          "background": "background:mid_gray",
          "minimapIcon": "#Cyellow"
        },{
          "comment": "0.2",
          "baseType": ["Orb of Alchemy", "Silver Coin", "Regal Orb", "Orb of Binding", "Horizon Shard", "Engineer's Shard"],
          "colourRef": "text:white background:mid_gray",
          "minimapIcon": "#Cwhite"
        }]
      },{
        "colourRef": "text:white border:transparent background:black",
        "filters": [{
          "comment": "0.1",
          "baseType": ["Orb of Chance", "Orb of Alteration", "Jeweller's Orb", "Glassblower's Bauble", "Chromatic Orb", "Binding Shard", "Alchemy Shard", "Regal Shard"],
          "background": "background:mid_gray"
        },{
          "comment": "6 socket",
          "sockets": 6,
          "class": ["clear"],
          "linkedSockets": "< 6",
          "background": "background:mid_gray"
        },{
          "comment": "< 0.1",
          "baseType": ["Portal Scroll", "Scroll of Wisdom", "Armourer's Scrap", "Blacksmith's Whetstone", "Orb of Augmentation", "Perandus Coin", "Orb of Transmutation"]
        },{
          "strictness": ["starter", "early"],
          "class": ["clear"],
          "socketGroup": "RGB",
          "filters": [{
            "comment": "Rainbow 2x2",
            "height": 2,
            "width": 2,
            "background": "background:mid_gray"
          },{
            "comment": "Rainbow 3x1",
            "height": 3,
            "width": 1,
            "background": "background:mid_gray"
          }]
        }]
      },{
        "comment": "Other currency, these are missing a filter",
        "fontSize": 26,
        "colourRef": "text:white border:green background:black"
      }]
    }]
  },
  {
    "strictness": ["starter", "early", "mid", "late","end", "end-strict"],
    "description": [
      "Start of the league and",
      "things that are of interest",
      "TODO: Split to late game appropriate sections"
    ],
    "filters": [{
      "block": "show",
      "fontSize": 30,
      "filters": [{
        "class": ["jewel"],
        "border": "border:gold",
        "background": "#REFbackground:gold#A60",
        "filters": [{
          "strictness": ["starter", "early", "mid"],
          "comment": "Magic Jewels",
          "rarity": "magic"
        },{
          "comment": "Rare Jewels",
          "rarity": "rare"
        }]
      },{
        "background": "background:transparent",
        "filters": [{
          "strictness": ["starter", "early"],
          "comment": "All magic 1x1",
          "rarity": "magic",
          "height": 1,
          "width": 1
        },{
          "comment": "All rare 1x1 and 1x2",
          "rarity": "rare",
          "height": 1
        },{
          "strictness": ["starter", "early", "mid"],
          "comment": "All rare 3x1",
          "rarity": "rare",
          "height": 3,
          "width": 1
        },{
          "strictness": ["starter", "early", "mid"],
          "comment": "All rare 2x2",
          "rarity": "rare",
          "height": 2,
          "width": 2
        },{
          "strictness": ["starter", "early", "mid", "late"],
          "comment": "Rest of rares with less visible appearance",
          "rarity": "rare",
          "border": "border:transparent",
          "fontSize": 18
        }]
      }]
    }]
  },
  {
    "strictness": ["starter", "early", "mid", "late","end", "end-strict"],
    "description": [
      "General show, hide and modify",
      "These handle broad stroke settings as well as",
      "Some very basic desired things"
    ],
    "filters": [{
      "block": "show",
      "fontSize": 26,
      "colourRef": "text:black background:bluish_white",
      "filters": [{
        "comment": "Quicksilver Flask",
        "baseType": ["Quicksilver Flask"],
        "border": "border:lime"
      },{
        "comment": "Life flasks",
        "baseType": ["Life Flask"],
        "border": "border:bright_red"
      },{
        "comment": "Mana flasks",
        "baseType": ["Mana Flask"],
        "border": "border:bright_blue"
      },{
        "comment": "Rest of the flasks",
        "class": ["flask"],
        "colourRef": "border:bright_blue text:black"
      },{
        "comment": "Vaal gems",
        "class": ["gem"],
        "baseType": ["Vaal"],
        "colourRef": "border:cyan background:dark_cyan text:cherry"
      }]
    },{
      "block": "hide",
      "comment": "Hide rest of gems under quality 10",
      "class": ["gem"],
      "quality": "< 10"
    },{
      "strictness": ["starter", "early"],
      "block": "show",
      "comment": "4 linked sockets for crafting",
      "fontSize": 30,
      "linkedSockets": 4,
      "colourRef": "border:gold background:gold text:purple"
    },{
      "strictness": ["starter", "early", "mid", "late"],
      "block": "show",
      "comment": "More than 4 linked sockets for crafting",
      "fontSize": 30,
      "linkedSockets": "> 4",
      "colourRef": "border:gold background:gold text:purple"
    }]
  },
  {
    "strictness": ["starter", "early", "mid", "late","end", "end-strict"],
    "description": [
      "General Hide / Show",
      "These are the final cleanups",
      "Everything that is unnecessary after getting here is hidden",
      "Everything that is not caught by other filters is show with known graphics for evaluation"
    ],
    "filters": [{
      "block": "hide",
      "rarity": "<= rare",
      "class": ["sword", "dagger", "bow", "axe", "claw", "wand", "mace", "sceptre", "stave", "armour", "boots", "gloves", "helmet", "shield", "quiver", "belt", "ring", "amulet", "warstave"]
    },{
      "block": "show",
      "fontSize": "30",
      "colourRef": "background:transparent border:mid_gray text:green"
    }]
  }]
}